\relax 
\providecommand\hyper@newdestlabel[2]{}
\providecommand\HyperFirstAtBeginDocument{\AtBeginDocument}
\HyperFirstAtBeginDocument{\ifx\hyper@anchor\@undefined
\global\let\oldcontentsline\contentsline
\gdef\contentsline#1#2#3#4{\oldcontentsline{#1}{#2}{#3}}
\global\let\oldnewlabel\newlabel
\gdef\newlabel#1#2{\newlabelxx{#1}#2}
\gdef\newlabelxx#1#2#3#4#5#6{\oldnewlabel{#1}{{#2}{#3}}}
\AtEndDocument{\ifx\hyper@anchor\@undefined
\let\contentsline\oldcontentsline
\let\newlabel\oldnewlabel
\fi}
\fi}
\global\let\hyper@last\relax 
\gdef\HyperFirstAtBeginDocument#1{#1}
\providecommand\HyField@AuxAddToFields[1]{}
\providecommand\HyField@AuxAddToCoFields[2]{}
\select@language{english}
\@writefile{toc}{\select@language{english}}
\@writefile{lof}{\select@language{english}}
\@writefile{lot}{\select@language{english}}
\newlabel{index::doc}{{}{1}{}{section*.2}{}}
\@writefile{toc}{\contentsline {chapter}{\numberline {1}Introduction}{1}{chapter.1}}
\@writefile{lof}{\addvspace {10\p@ }}
\@writefile{lot}{\addvspace {10\p@ }}
\newlabel{introduction:welcome-to-the-nims-documentation}{{1}{1}{Introduction}{chapter.1}{}}
\newlabel{introduction::doc}{{1}{1}{Introduction}{chapter.1}{}}
\newlabel{introduction:introduction}{{1}{1}{Introduction}{chapter.1}{}}
\@writefile{toc}{\contentsline {section}{\numberline {1.1}Introduction}{1}{section.1.1}}
\newlabel{introduction:id1}{{1.1}{1}{Introduction}{section.1.1}{}}
\@writefile{toc}{\contentsline {section}{\numberline {1.2}Description}{1}{section.1.2}}
\newlabel{introduction:description}{{1.2}{1}{Description}{section.1.2}{}}
\@writefile{toc}{\contentsline {section}{\numberline {1.3}Functional Requirement}{1}{section.1.3}}
\newlabel{introduction:functional-requirement}{{1.3}{1}{Functional Requirement}{section.1.3}{}}
\@writefile{toc}{\contentsline {section}{\numberline {1.4}Technical Requirements}{2}{section.1.4}}
\newlabel{introduction:technical-requirements}{{1.4}{2}{Technical Requirements}{section.1.4}{}}
\@writefile{toc}{\contentsline {section}{\numberline {1.5}Organization}{2}{section.1.5}}
\newlabel{introduction:organization}{{1.5}{2}{Organization}{section.1.5}{}}
\@writefile{toc}{\contentsline {section}{\numberline {1.6}Resources}{2}{section.1.6}}
\newlabel{introduction:resources}{{1.6}{2}{Resources}{section.1.6}{}}
\@writefile{toc}{\contentsline {section}{\numberline {1.7}Timing}{2}{section.1.7}}
\newlabel{introduction:timing}{{1.7}{2}{Timing}{section.1.7}{}}
\@writefile{toc}{\contentsline {chapter}{\numberline {2}Build read-only NIMS webinterface}{3}{chapter.2}}
\@writefile{lof}{\addvspace {10\p@ }}
\@writefile{lot}{\addvspace {10\p@ }}
\newlabel{webinterface:build-read-only-nims-webinterface}{{2}{3}{Build read-only NIMS webinterface}{chapter.2}{}}
\newlabel{webinterface::doc}{{2}{3}{Build read-only NIMS webinterface}{chapter.2}{}}
\@writefile{toc}{\contentsline {section}{\numberline {2.1}Introduction}{3}{section.2.1}}
\newlabel{webinterface:introduction}{{2.1}{3}{Introduction}{section.2.1}{}}
\@writefile{toc}{\contentsline {section}{\numberline {2.2}Assignment}{3}{section.2.2}}
\newlabel{webinterface:assignment}{{2.2}{3}{Assignment}{section.2.2}{}}
\@writefile{toc}{\contentsline {section}{\numberline {2.3}Objective}{3}{section.2.3}}
\newlabel{webinterface:objective}{{2.3}{3}{Objective}{section.2.3}{}}
\@writefile{toc}{\contentsline {section}{\numberline {2.4}Functionalities}{4}{section.2.4}}
\newlabel{webinterface:functionalities}{{2.4}{4}{Functionalities}{section.2.4}{}}
\@writefile{toc}{\contentsline {chapter}{\numberline {3}Comment on NEAR architecture}{5}{chapter.3}}
\@writefile{lof}{\addvspace {10\p@ }}
\@writefile{lot}{\addvspace {10\p@ }}
\newlabel{architecture:comment-on-near-architecture}{{3}{5}{Comment on NEAR architecture}{chapter.3}{}}
\newlabel{architecture::doc}{{3}{5}{Comment on NEAR architecture}{chapter.3}{}}
\@writefile{toc}{\contentsline {section}{\numberline {3.1}Introduction}{5}{section.3.1}}
\newlabel{architecture:introduction}{{3.1}{5}{Introduction}{section.3.1}{}}
\newlabel{architecture:id2}{{3.1}{5}{Introduction}{section*.3}{}}
\@writefile{toc}{\contentsline {section}{\numberline {3.2}Tooling}{5}{section.3.2}}
\newlabel{architecture:tooling}{{3.2}{5}{Tooling}{section.3.2}{}}
\@writefile{toc}{\contentsline {section}{\numberline {3.3}Assignment}{5}{section.3.3}}
\newlabel{architecture:assignment}{{3.3}{5}{Assignment}{section.3.3}{}}
\@writefile{toc}{\contentsline {section}{\numberline {3.4}Objective}{5}{section.3.4}}
\newlabel{architecture:objective}{{3.4}{5}{Objective}{section.3.4}{}}
\@writefile{toc}{\contentsline {chapter}{\numberline {4}Indices and tables}{7}{chapter.4}}
\@writefile{lof}{\addvspace {10\p@ }}
\@writefile{lot}{\addvspace {10\p@ }}
\newlabel{index:indices-and-tables}{{4}{7}{Indices and tables}{chapter.4}{}}
\bibcite{NOG2016}{NOG2016}
\@writefile{toc}{\contentsline {chapter}{Bibliography}{9}{chapter*.5}}
\newlabel{architecture:nog2016}{{4}{9}{\bibname }{section*.6}{}}
